DIIG Data Challenge
…
Satisfaction

satisfaction <- IBM %>%
  select(JobRole, JobSatisfaction) %>%
  arrange(JobSatisfaction) %>%
  mutate(Satisfaction = case_when(
    JobSatisfaction == 1 ~ "Low",
    JobSatisfaction == 2 ~ "Medium",
    JobSatisfaction == 3 ~ "High",
    JobSatisfaction == 4 ~ "Very High"
  ))
satisfaction

## # A tibble: 1,470 x 3
##    JobRole                JobSatisfaction Satisfaction
##    <chr>                            <dbl> <chr>       
##  1 Laboratory Technician                1 Low         
##  2 Manufacturing Director               1 Low         
##  3 Sales Representative                 1 Low         
##  4 Research Scientist                   1 Low         
##  5 Research Scientist                   1 Low         
##  6 Manager                              1 Low         
##  7 Research Scientist                   1 Low         
##  8 Sales Executive                      1 Low         
##  9 Laboratory Technician                1 Low         
## 10 Sales Executive                      1 Low         
## #  with 1,460 more rows
…
